Spring 2022, Block J — MA117 — Lab Solutions
…
There are 100 rows. Each is a mean of a sample of 50 areas.

samples_small <- tibble(size = numeric(), mean_area = numeric())

for(i in 1:100) {
  samp <- slice_sample(ames, n = 50)
  samples_small <- add_row(samples_small, size = 50, mean_area = mean(samp$area))
}

samples_small

Output:

# A tibble: 100 × 2  
    size mean_area  
   <dbl>     <dbl>  
 1    50     1506.  
 2    50     1458.  
 3    50     1665.  
 4    50     1512.  
 5    50     1657.  
 6    50     1356.  
 7    50     1539.  
 8    50     1444.  
 9    50     1466.  
10    50     1298.  
# … with 90 more rows
…
