Spring 2022, Block J — MA117 — Labs
…
You should see that the workspace area in the upper righthand corner
of the RStudio window now lists a tibble called arbuthnot
that has 82 observations on 3 variables. You can take a look at the
tibble by typing its name into the console.

arbuthnot

R will show you something like this:

# A tibble: 82 × 3
    year  boys girls
   <dbl> <dbl> <dbl>
 1  1629  5218  4683
 2  1630  4858  4457
 3  1631  4422  4102
 4  1632  4994  4590
 5  1633  5158  4839
 6  1634  5035  4820
 7  1635  5106  4928
 8  1636  4917  4605
 9  1637  4703  4457
10  1638  5359  4952
# … with 72 more rows
…
